<svg width="34" height="34" viewBox="0 0 34 34" fill="none" xmlns="http://www.w3.org/2000/svg">
<path fill-rule="evenodd" clip-rule="evenodd" d="M13 11.5C13 12.3286 12.3286 13 11.5 13C10.6714 13 10 12.3286 10 11.5C10 10.672 10.6714 10 11.5 10C12.3286 10 13 10.672 13 11.5Z" fill="#1D1D20"/>
<path fill-rule="evenodd" clip-rule="evenodd" d="M13 14H10V23H13V14Z" fill="#1D1D20"/>
<path fill-rule="evenodd" clip-rule="evenodd" d="M18.7969 14.2691H16V23H18.7975V18.4168C18.7975 15.8685 22.1918 15.66 22.1918 18.4168V23H25V17.4717C25 13.1717 19.977 13.3283 18.7969 15.445V14.2691Z" fill="#1D1D20"/>
<path d="M17 32C25.2843 32 32 25.2843 32 17C32 8.71573 25.2843 2 17 2C8.71573 2 2 8.71573 2 17C2 25.2843 8.71573 32 17 32Z" stroke="#1D1D20" stroke-width="3"/>
</svg>
