<svg width="17" height="36" viewBox="0 0 17 36" fill="none" xmlns="http://www.w3.org/2000/svg">
<g style="mix-blend-mode:luminosity" clip-path="url(#clip0)">
<path d="M12.5479 34.9028L12.8931 29.151L13.8462 27.5241C13.8462 27.5241 11.6769 28.4115 8.04515 28.4115C4.41335 28.4115 2.27694 27.5405 2.27694 27.5405L3.34511 29.3153L3.72299 34.9028C3.72299 35.5018 5.69847 35.9874 8.13547 35.9874C10.5723 35.9874 12.5479 35.5018 12.5479 34.9028ZM11.459 8.04304L12.1836 5.17926L16.1958 0.957462L15.1383 0.0567627L10.8905 4.55403L10.0493 7.97549C9.41619 7.95427 8.78275 7.94373 8.14927 7.94388C3.6756 7.94388 0.0489502 8.45373 0.0489502 9.08252C0.0489502 9.71137 3.6756 10.2212 8.14927 10.2212C12.6229 10.2212 16.2495 9.71137 16.2495 9.08252C16.2495 8.61948 14.2826 8.22094 11.459 8.04304Z" fill="#D34A47"/>
<path d="M11.0375 9.64679C11.0375 9.64679 10.8806 9.68195 10.419 9.68392C9.95734 9.68583 9.62953 9.68093 9.49895 9.56201C9.46384 9.53009 9.44463 9.46669 9.44483 9.42376C9.44521 9.34204 9.50321 9.2939 9.57712 9.26376L9.64702 9.37339C9.61662 9.38389 9.59925 9.39629 9.59919 9.40952C9.59894 9.47158 10.0713 9.51406 10.4325 9.50949C10.7938 9.50503 11.2304 9.47527 11.2308 9.41409C11.2308 9.39559 11.1978 9.37816 11.1404 9.36443L11.2099 9.25555C11.3036 9.28462 11.3853 9.34077 11.3851 9.43794C11.3842 9.60316 11.1739 9.62828 11.0375 9.64679Z" fill="white"/>
<path d="M16.1878 0.965748C16.2887 0.849225 16.1356 0.551176 15.8459 0.30013C15.556 0.0492111 15.2393 -0.0598065 15.1382 0.0567164C15.0373 0.173239 15.1904 0.471289 15.4803 0.722208C15.77 0.97319 16.0869 1.08233 16.1878 0.965748ZM12.3548 20.8536C12.2597 19.9387 14.3559 18.6137 13.818 18.5713C12.6599 18.6375 12.0835 19.9285 11.5008 21.2806C11.2873 21.7761 10.5567 23.8892 10.0775 23.629C9.5984 23.369 10.6986 21.6314 11.0069 20.5995C10.6511 20.8604 9.34628 21.8742 9.01 20.9248C8.46936 21.3839 7.31412 21.6327 7.44444 20.4265C7.15683 20.936 6.51131 21.6473 5.73648 21.3517C4.71894 20.9637 6.32609 17.7223 6.72572 17.8859C7.12541 18.0493 6.64507 18.7877 6.51926 19.0744C6.24258 19.7055 5.92297 20.4987 6.13649 20.6611C6.50227 20.9393 7.49768 19.6087 7.51982 19.5794C7.70599 19.3334 8.23638 17.7243 8.66387 17.9091C9.09135 18.0939 7.5976 20.2184 8.15611 20.6401C8.26876 20.7252 8.72963 20.5876 9.01 20.2843C9.1914 20.088 9.129 19.6534 9.73369 18.2114C10.3384 16.7694 10.8773 14.9736 11.292 15.1104C11.7067 15.2472 11.3649 16.1689 11.2161 16.5125C10.518 18.1251 9.31078 20.7893 9.88011 20.5876C10.4494 20.386 10.7459 20.3741 11.3034 19.7217C11.8609 19.0694 11.8352 17.9948 12.2067 18.0176C12.5785 18.0405 12.5161 18.385 12.4259 18.6474C12.7917 18.2289 14.1595 17.3475 14.4898 18.2204C14.8809 19.2539 12.5327 20.7468 13.1182 20.6707C13.689 20.5964 14.6139 20.0107 15.0087 19.4781L16.0956 9.70688C16.0956 9.70688 15.0019 10.612 8.04398 10.612C1.08599 10.612 0.105469 9.72571 0.105469 9.72571L1.03078 18.6445C1.52194 17.2486 2.68825 14.4251 4.52666 14.5199C5.36293 14.563 6.47931 16.1733 5.52302 16.2278C5.11825 16.2509 5.07716 15.4241 4.59784 15.3027C4.25196 15.215 3.77041 15.4962 3.45919 15.8009C2.83854 16.4083 1.50368 18.8048 1.68006 19.9996C1.90477 21.5229 3.78205 19.4703 4.09969 18.8609C4.32338 18.4317 4.47451 17.1598 4.96375 17.2933C5.45306 17.4267 4.92107 18.7393 4.56642 19.8997C4.168 21.2028 3.95855 22.5773 3.45919 22.4192C2.95977 22.2612 3.77327 20.579 3.74382 20.2843C3.27442 20.7173 2.40966 21.8138 1.30333 21.2711L1.87799 26.8096C1.87799 26.8096 3.40532 28.0164 8.00626 28.0164C12.6072 28.0164 14.1911 26.8284 14.1911 26.8284L14.9047 20.4135C14.3208 20.982 12.4731 21.9915 12.3548 20.8536Z" fill="#D34A47"/>
</g>
<defs>
<clipPath id="clip0">
<rect width="16.2864" height="36" fill="white"/>
</clipPath>
</defs>
</svg>
