<svg width="50" height="53" viewBox="0 0 50 53" fill="none" xmlns="http://www.w3.org/2000/svg">
<g clip-path="url(#clip0)">
<path fill-rule="evenodd" clip-rule="evenodd" d="M4.72565 52.298C4.73082 52.2931 4.73598 52.2882 4.74112 52.2832L22.1567 35.4652C23.0976 34.5565 23.1238 33.0571 22.2152 32.1162C21.3065 31.1753 19.8072 31.1491 18.8662 32.0578L1.45063 48.8758C1.28326 49.0374 1.14483 49.2177 1.03546 49.4103C0.379246 48.3601 1.03702e-06 47.1191 0 45.7895C0 45.7895 0 45.7895 0 45.7895L0 6.8421C0 3.06331 3.06331 0 6.84211 0C6.84211 0 6.84211 0 6.84211 0V5.33655e-06L23.6885 3.74683e-05C28.2302 4.10107e-05 32.5032 1.15058 36.2319 3.1761L19.5986 19.2387C18.6577 20.1474 18.6315 21.6467 19.5401 22.5877C20.4488 23.5286 21.9482 23.5548 22.8891 22.6461L40.2596 5.87164C46.2048 10.6965 50.0043 18.0625 50.0043 26.3158C50.0043 40.8496 38.2223 52.6316 23.6885 52.6316L6.84211 52.6316C6.10344 52.6316 5.3921 52.5146 4.72565 52.298Z" fill="#F5F5F5"/>
</g>
<defs>
<clipPath id="clip0">
<rect width="50" height="52.6316" fill="white"/>
</clipPath>
</defs>
</svg>
