<svg width="500" height="500" viewBox="0 0 500 500" fill="none" xmlns="http://www.w3.org/2000/svg">
<path d="M76.8898 282.411C74.8269 261.913 63.873 244.248 78.4407 229.68C87.7463 220.374 95.5009 235.884 95.5009 235.884H101.705L107.908 324.287C107.908 324.287 100.792 339.64 84.6444 321.185C73.7879 308.777 78.436 297.776 76.8898 282.411Z" fill="#E4CDA9"/>
<mask id="mask0" mask-type="alpha" maskUnits="userSpaceOnUse" x="95" y="138" width="246" height="340">
<path d="M106.357 316.532C105.57 285.599 95.5009 237.435 95.5009 237.435V170.745L340.547 138.175C340.547 138.175 340.547 225.027 340.547 243.638C336.144 259.341 327.811 266.341 325.038 282.411C322.772 295.542 326.036 303.244 325.038 316.532C324.04 329.819 269.205 459.217 250.594 468.523C221.021 483.309 194.719 479.223 168.395 459.217C156.416 450.114 152.132 441.203 143.58 429.75C128.07 408.977 112.306 402.25 106.357 377.018C101.753 357.484 106.958 340.146 106.357 316.532Z" fill="#C4C4C4"/>
</mask>
<g mask="url(#mask0)">
<rect x="76.8898" y="124.217" width="288.472" height="381.528" fill="#E4CDA9"/>
<path d="M104.806 288.615L107.908 294.819C107.908 294.819 111.084 334.602 114.112 350.652C117.14 366.703 123.418 377.018 123.418 377.018C123.418 377.018 134.66 397.313 146.682 397.18C153.999 397.099 163.742 389.425 163.742 389.425C163.742 389.425 162.115 423.634 174.598 439.055C181.687 447.812 186.602 456.49 197.862 456.115C208.64 455.757 219.575 439.055 219.575 439.055H230.432C230.432 439.055 236.635 459.217 247.492 459.217C247.492 459.217 250.482 458.617 252.145 457.666C254.376 456.391 256.797 453.013 256.797 453.013V482.481L101.705 482.232L104.806 288.615Z" fill="#BAA585"/>
<path d="M256.797 453.013C256.797 453.013 260.209 448.361 263.001 443.708C267.654 435.953 280.061 401.833 280.061 401.833C280.061 401.833 291.164 389.108 297.122 380.12C306.1 366.573 315.733 342.898 315.733 342.898V480.93H250.594V468.523L256.797 453.013Z" fill="#AC9A7E"/>
<path d="M219.575 415.791L233.533 417.342L230.432 428.199H221.126L219.575 415.791Z" fill="#BAA585"/>
<path d="M185.455 367.712C198.785 357.712 221.126 353.754 225.779 353.754C228.881 353.754 237.871 356.856 239.737 361.509C240.359 363.06 239.731 370.819 235.084 373.916C230.432 377.018 219.594 374.702 208.719 375.467C194.018 376.501 171.496 381.671 171.496 381.671C171.496 381.671 179.288 372.339 185.455 367.712Z" fill="#BAA585"/>
<path d="M253.696 358.407C258.348 356.081 264.166 361.638 269.205 366.162C276.666 372.859 283.163 390.976 283.163 390.976C283.163 390.976 275.849 385.811 270.756 383.222C262.219 378.883 249.043 378.246 247.492 375.467C245.13 371.236 249.043 360.733 253.696 358.407Z" fill="#BAA585"/>
<path d="M266.103 308.777C264.969 292.452 267.654 266.902 267.654 266.902C267.654 266.902 268.522 293.473 270.756 310.328C272.535 323.754 282.692 332.633 273.858 342.898C269.084 348.445 259.899 352.203 259.899 352.203C259.899 352.203 268.083 345.653 270.756 339.796C275.84 328.652 266.952 320.997 266.103 308.777Z" fill="#938671"/>
<path d="M213.371 325.837C216.653 322.596 219.615 321.185 224.228 321.185C228.841 321.185 235.084 325.837 235.084 325.837C235.084 325.837 224.267 324.126 219.575 325.837C214.486 327.694 208.719 335.143 208.719 335.143C208.719 335.143 210.481 328.693 213.371 325.837Z" fill="#938671"/>
<path d="M218.024 344.449C218.024 344.449 224.542 342.113 228.881 342.898C232.356 343.526 236.635 346 236.635 346C236.635 346 230.01 346.663 225.779 346C222.556 345.494 218.024 344.449 218.024 344.449Z" fill="#938671"/>
<path d="M151.334 214.171C151.334 214.171 168.372 209.687 182.353 211.069C199.926 212.806 210.822 215.807 222.677 228.129C229.087 234.791 235.084 248.291 235.084 248.291C235.084 248.291 213.259 231.781 197.862 226.578C182.67 221.444 154.436 223.476 154.436 223.476L149.783 218.823L151.334 214.171Z" fill="#AC9A7E"/>
<path d="M290.918 242.087C297.124 238.661 301.018 237.232 307.978 235.884C320.521 233.453 340.547 238.986 340.547 238.986V245.189L338.997 249.842C338.997 249.842 320.826 245.189 307.978 245.189C295.13 245.189 275.409 254.495 275.409 254.495C275.409 254.495 284.127 245.836 290.918 242.087Z" fill="#AC9A7E"/>
<path d="M306.427 276.208C306.754 245.172 329.691 215.722 298.672 197.11C273.139 181.79 250.324 186.052 222.677 197.11C207.168 203.314 157.538 248.291 134.274 229.68C105.177 206.402 125.773 276.488 117.214 305.675C112.363 322.217 103.256 347.55 103.256 347.55L98.6028 276.208L67.5842 135.073H357.608V310.328C357.608 310.328 306.132 304.231 306.427 276.208Z" fill="black" fill-opacity="0.2"/>
</g>
<path d="M148.232 256.046L95.5009 234.333" stroke="#646464" stroke-linecap="round"/>
<path d="M240.431 262.387C240.431 262.387 255.626 256.826 265.544 257.659C274.695 258.427 286.265 266.902 286.265 266.902" stroke="#373737"/>
<path d="M163.939 239.445C185.519 230.196 216.315 231.764 234.746 248.66C244.073 257.209 244.464 270.659 239.942 284.172C235.426 297.668 226.054 311.05 216.154 319.249C205.796 327.827 193.17 329.212 181.562 326.594C169.943 323.974 159.398 317.353 153.269 310.008C152.73 309.362 151.928 308.011 151.004 306.074C150.086 304.149 149.063 301.677 148.075 298.815C146.098 293.09 144.268 285.822 143.69 278.261C143.113 270.697 143.791 262.868 146.8 255.999C149.804 249.143 155.14 243.216 163.939 239.445Z" fill="#404040" stroke="#373737"/>
<path d="M340.689 260.762C323.883 251.202 299.191 251.406 283.637 266.502C275.745 274.161 274.393 287.406 276.471 300.363C278.547 313.305 284.01 325.732 289.468 331.608C297.318 340.058 308.57 341.892 319.199 339.914C329.839 337.934 339.743 332.151 344.803 325.534C345.651 324.425 347.553 320.794 349.495 315.677C351.43 310.579 353.386 304.059 354.364 297.199C356.324 283.449 354.342 268.528 340.689 260.762Z" fill="#404040" stroke="#373737"/>
<path d="M159.379 255.304C166.112 247.999 181.294 245.077 181.294 245.077C181.294 245.077 168.897 265.265 168.145 275.759C167.031 291.292 181.294 318.129 181.294 318.129C181.294 318.129 169.02 310.714 163.762 303.518C152.607 288.254 148.059 267.586 159.379 255.304Z" fill="#656565"/>
<path d="M292.548 273.889C298.766 266.876 312.787 264.07 312.787 264.07C312.787 264.07 301.338 283.451 300.644 293.525C299.615 308.437 312.787 334.2 312.787 334.2C312.787 334.2 301.452 327.082 296.596 320.174C286.294 305.52 282.093 285.679 292.548 273.889Z" fill="#656565"/>
<mask id="mask1" mask-type="alpha" maskUnits="userSpaceOnUse" x="91" y="23" width="256" height="185">
<path d="M92.3991 164.541C94.1472 153.685 123.418 73.0363 135.825 63.7307C149.774 53.2693 247.492 18.89 261.45 23.4066C275.409 27.9232 331.983 96.3002 337.446 108.708C341.845 118.701 346.751 135.073 346.751 135.073H244.39L100.154 200.212L93.95 207.967C93.95 207.967 90.651 175.397 92.3991 164.541Z" fill="#C4C4C4"/>
</mask>
<g mask="url(#mask1)">
<rect x="45.8713" y="-2.95917" width="359.815" height="254.352" fill="#464646"/>
<path d="M84.6445 155.235L107.908 93.1983L135.825 62.9233C135.825 62.9233 133.78 67.8417 132.723 73.0363C131.666 78.2308 135.825 180.05 135.825 180.05L89.2973 226.578L84.6445 155.235Z" fill="#404040"/>
<path d="M259.899 21.8557H349.853V138.175L269.205 125.768C269.205 125.768 268.316 34.9264 266.103 31.1612C263.889 27.3961 259.899 21.8557 259.899 21.8557Z" fill="#414141"/>
</g>
<g filter="url(#filter0_i)">
<path d="M197.862 107.157L163.742 114.911L191.658 69.9344L225.779 104.055L273.858 105.606L266.103 65.2817" stroke="#DEDEDE" stroke-width="13" stroke-linecap="round" stroke-linejoin="round"/>
</g>
<g filter="url(#filter1_i)">
<path d="M298.672 111.809L290.918 73.0363" stroke="#D5D5D5" stroke-width="13" stroke-linecap="round" stroke-linejoin="round"/>
</g>
<g filter="url(#filter2_i)">
<path d="M331.242 105.66L309.529 82.3419" stroke="#FF5656" stroke-width="9" stroke-linecap="round" stroke-linejoin="round"/>
</g>
<g filter="url(#filter3_i)">
<path d="M338.997 128.87L314.182 104.055" stroke="#BABABA" stroke-width="9" stroke-linecap="round" stroke-linejoin="round"/>
</g>
<mask id="mask2" mask-type="alpha" maskUnits="userSpaceOnUse" x="100" y="123" width="329" height="138">
<path d="M100.154 200.212C100.154 200.212 121.867 178.065 165.293 156.786C219.586 130.183 269.199 117.438 317.284 127.319C430.501 150.583 435.154 235.884 425.848 249.842C407.629 277.172 340.547 243.638 340.547 243.638C340.547 243.638 342.098 201.763 332.793 183.152C322.893 163.352 289.086 150.583 256.797 150.583C196.311 150.583 165.293 203.314 114.112 209.518C107.608 210.306 100.154 200.212 100.154 200.212Z" fill="#C4C4C4"/>
</mask>
<g mask="url(#mask2)">
<path d="M100.154 124.217H289.367L342.098 139.726L100.154 221.925V124.217Z" fill="#4F4F4F"/>
<path d="M287.816 121.115L433.603 127.319V245.189L321.936 136.624L289.367 130.421L228.881 127.319L287.816 121.115Z" fill="#373737"/>
<path d="M205.617 164.541C205.617 164.541 249.043 136.624 312.631 136.624C342.098 136.624 365.678 146.865 391.728 169.194C439.807 210.404 430.501 270.004 430.501 270.004H205.617V164.541Z" fill="#2C2C2C"/>
</g>
<defs>
<filter id="filter0_i" x="150.215" y="48.9928" width="133.056" height="80.7902" filterUnits="userSpaceOnUse" color-interpolation-filters="sRGB">
<feFlood flood-opacity="0" result="BackgroundImageFix"/>
<feBlend mode="normal" in="SourceGraphic" in2="BackgroundImageFix" result="shape"/>
<feColorMatrix in="SourceAlpha" type="matrix" values="0 0 0 0 0 0 0 0 0 0 0 0 0 0 0 0 0 0 127 0" result="hardAlpha"/>
<feOffset dx="2" dy="-2"/>
<feGaussianBlur stdDeviation="1"/>
<feComposite in2="hardAlpha" operator="arithmetic" k2="-1" k3="1"/>
<feColorMatrix type="matrix" values="0 0 0 0 0 0 0 0 0 0 0 0 0 0 0 0 0 0 0.25 0"/>
<feBlend mode="normal" in2="shape" result="effect1_innerShadow"/>
</filter>
<filter id="filter1_i" x="283.505" y="64.3544" width="23.5805" height="55.1369" filterUnits="userSpaceOnUse" color-interpolation-filters="sRGB">
<feFlood flood-opacity="0" result="BackgroundImageFix"/>
<feBlend mode="normal" in="SourceGraphic" in2="BackgroundImageFix" result="shape"/>
<feColorMatrix in="SourceAlpha" type="matrix" values="0 0 0 0 0 0 0 0 0 0 0 0 0 0 0 0 0 0 127 0" result="hardAlpha"/>
<feOffset dx="2" dy="-1"/>
<feGaussianBlur stdDeviation="0.5"/>
<feComposite in2="hardAlpha" operator="arithmetic" k2="-1" k3="1"/>
<feColorMatrix type="matrix" values="0 0 0 0 0 0 0 0 0 0 0 0 0 0 0 0 0 0 0.25 0"/>
<feBlend mode="normal" in2="shape" result="effect1_innerShadow"/>
</filter>
<filter id="filter2_i" x="304.397" y="73.4854" width="32.9778" height="40.0307" filterUnits="userSpaceOnUse" color-interpolation-filters="sRGB">
<feFlood flood-opacity="0" result="BackgroundImageFix"/>
<feBlend mode="normal" in="SourceGraphic" in2="BackgroundImageFix" result="shape"/>
<feColorMatrix in="SourceAlpha" type="matrix" values="0 0 0 0 0 0 0 0 0 0 0 0 0 0 0 0 0 0 127 0" result="hardAlpha"/>
<feOffset dx="1" dy="-1"/>
<feGaussianBlur stdDeviation="0.5"/>
<feComposite in2="hardAlpha" operator="arithmetic" k2="-1" k3="1"/>
<feColorMatrix type="matrix" values="0 0 0 0 0 0 0 0 0 0 0 0 0 0 0 0 0 0 0.25 0"/>
<feBlend mode="normal" in2="shape" result="effect1_innerShadow"/>
</filter>
<filter id="filter3_i" x="309.049" y="94.7669" width="36.0794" height="42.3907" filterUnits="userSpaceOnUse" color-interpolation-filters="sRGB">
<feFlood flood-opacity="0" result="BackgroundImageFix"/>
<feBlend mode="normal" in="SourceGraphic" in2="BackgroundImageFix" result="shape"/>
<feColorMatrix in="SourceAlpha" type="matrix" values="0 0 0 0 0 0 0 0 0 0 0 0 0 0 0 0 0 0 127 0" result="hardAlpha"/>
<feOffset dx="1" dy="-1"/>
<feGaussianBlur stdDeviation="0.5"/>
<feComposite in2="hardAlpha" operator="arithmetic" k2="-1" k3="1"/>
<feColorMatrix type="matrix" values="0 0 0 0 0 0 0 0 0 0 0 0 0 0 0 0 0 0 0.25 0"/>
<feBlend mode="normal" in2="shape" result="effect1_innerShadow"/>
</filter>
</defs>
</svg>
